Senado
…
sen_corpus_df  <- sen_corpus_df %>% 
  rename(Partido = SiglaPartidoParlamentarNaData)

sen_corpus_df <- sen_corpus_df %>% 
  mutate(Partido = str_replace(Partido, "PODE\\b", "PODEMOS"))

partidos <- sen_corpus_df %>% 
  group_by(Partido) %>% 
  count()

partidos

## # A tibble: 26 x 2
## # Groups:   Partido [26]
##    Partido       n
##    <chr>     <int>
##  1 CIDADANIA   139
##  2 DEM         241
##  3 MDB         404
##  4 PATRIOTA     26
##  5 PDT         207
##  6 PL           81
##  7 PMDB        291
##  8 PODEMOS     494
##  9 PP          204
## 10 PPS          17
## # ... with 16 more rows
…
